Vannmiljø Data - Conversion to eData
…
# Validate against eData schema
initialise_sites_tibble() |> add_row(edata_sites)

# A tibble: 4,984 × 14
   SITE_CODE SITE_NAME SITE_GEOGRAPHIC_FEAT…¹ SITE_GEOGRAPHIC_FEAT…² COUNTRY_ISO
   <glue>    <glue>    <chr>                  <chr>                  <chr>      
 1 Vannmilj… Vannmilj… Lake, pond, pool, res… Water column, pelagic… Norway     
 2 Vannmilj… Vannmilj… Lake, pond, pool, res… Water column, pelagic… Norway     
 3 Vannmilj… Vannmilj… Lake, pond, pool, res… Water column, pelagic… Norway     
 4 Vannmilj… Vannmilj… Lake, pond, pool, res… Water column, pelagic… Norway     
 5 Vannmilj… Vannmilj… Lake, pond, pool, res… Water column, pelagic… Norway     
 6 Vannmilj… Vannmilj… Lake, pond, pool, res… Water column, pelagic… Norway     
 7 Vannmilj… Vannmilj… River, stream, canal   Water column, pelagic… Norway     
 8 Vannmilj… Vannmilj… River, stream, canal   Water column, pelagic… Norway     
 9 Vannmilj… Vannmilj… River, stream, canal   Water column, pelagic… Norway     
10 Vannmilj… Vannmilj… River, stream, canal   Water column, pelagic… Norway     
# ℹ 4,974 more rows
# ℹ abbreviated names: ¹​SITE_GEOGRAPHIC_FEATURE, ²​SITE_GEOGRAPHIC_FEATURE_SUB
# ℹ 9 more variables: OCEAN_IHO <chr>, LATITUDE <dbl>, LONGITUDE <dbl>,
#   SITE_COORDINATE_SYSTEM <chr>, ALTITUDE_VALUE <dbl>, ALTITUDE_UNIT <chr>,
#   ENTERED_BY <glue>, ENTERED_DATE <chr>, SITE_COMMENT <glue>
…
    # Comments
    MEASUREMENT_COMMENT = Kommentar,

    .keep = "none"
  )

# Validate against eData schema
initialise_measurements_tibble() |> add_row(edata_measurements)

# A tibble: 48,384 × 27
   SITE_CODE       PARAMETER_NAME SAMPLING_DATE ENVIRON_COMPARTMENT_…¹ SUBSAMPLE
   <glue>          <chr>          <chr>         <chr>                  <chr>    
 1 Vannmiljø_053-… Copper         2017-08-09    Freshwater             1        
 2 Vannmiljø_053-… Copper         2017-09-12    Freshwater             1        
 3 Vannmiljø_053-… Copper         2017-04-26    Freshwater             1        
 4 Vannmiljø_053-… Copper         2017-05-18    Freshwater             1        
 5 Vannmiljø_053-… Copper         2017-06-14    Freshwater             1        
 6 Vannmiljø_053-… Copper         2017-07-11    Freshwater             1        
 7 Vannmiljø_053-… Copper         2018-04-16    Freshwater             1        
 8 Vannmiljø_053-… Copper         2018-05-22    Freshwater             1        
 9 Vannmiljø_053-… Copper         2018-08-07    Freshwater             1        
10 Vannmiljø_053-… Copper         2018-06-19    Freshwater             1        
# ℹ 48,374 more rows
# ℹ abbreviated name: ¹​ENVIRON_COMPARTMENT_SUB
# ℹ 22 more variables: MEASURED_FLAG <chr>, MEASURED_VALUE <dbl>,
#   UNCERTAINTY_TYPE <chr>, UNCERTAINTY_UPPER <dbl>, UNCERTAINTY_LOWER <dbl>,
#   MEASURED_UNIT <chr>, MEASURED_N <dbl>, LOQ_VALUE <dbl>, LOQ_UNIT <chr>,
#   LOD_VALUE <dbl>, LOD_UNIT <chr>, SAMPLING_PROTOCOL <chr>,
#   EXTRACTION_PROTOCOL <chr>, FRACTIONATION_PROTOCOL <chr>, …
…
